<svg xmlns="http://www.w3.org/2000/svg" width="12" height="7" viewBox="0 0 12 7">
  <path id="Icon" d="M10.293.293a1,1,0,0,1,1.414,1.414l-5,5a1,1,0,0,1-1.414,0l-5-5A1,1,0,0,1,1.707.293L6,4.586Z" fill="#fff"/>
</svg>
