<svg xmlns="http://www.w3.org/2000/svg" width="13.609" height="15" viewBox="0 0 13.609 15">
  <g id="Group_8" data-name="Group 8" transform="translate(-110.246 -189.25)">
    <path id="Vector" d="M13.127,2.775c-1.123-.112-2.245-.2-3.375-.258V2.51L9.6,1.6C9.493.962,9.34,0,7.708,0H5.881C4.256,0,4.1.921,3.991,1.6l-.146.893c-.649.042-1.3.084-1.946.146L.477,2.775a.522.522,0,1,0,.1,1.039L2,3.675a55.6,55.6,0,0,1,11.032.146h.056a.528.528,0,0,0,.523-.474A.534.534,0,0,0,13.127,2.775Z" transform="translate(110.246 189.25)" fill="#d04949"/>
    <path id="Vector-2" data-name="Vector" d="M10.322.272A.882.882,0,0,0,9.688,0H.873A.87.87,0,0,0,.239.272.9.9,0,0,0,0,.927L.434,8.082c.077,1.06.174,2.385,2.608,2.385H7.519c2.434,0,2.531-1.318,2.608-2.385L10.559.934A.9.9,0,0,0,10.322.272Zm-3.884,6.7H4.116a.523.523,0,0,1,0-1.046H6.438a.523.523,0,0,1,0,1.046Zm.586-2.789H3.537a.523.523,0,0,1,0-1.046H7.024a.523.523,0,0,1,0,1.046Z" transform="translate(111.768 193.783)" fill="#d04949"/>
  </g>
</svg>
