<svg id="forest-trees-5072" xmlns="http://www.w3.org/2000/svg" width="147.213" height="123.128" viewBox="0 0 147.213 123.128">
  <g id="Group_2564" data-name="Group 2564">
    <path id="Path_332" data-name="Path 332" d="M102.474,119.389A34.186,34.186,0,0,1,68.326,85.241c0-18.74,14.78-64.621,34.148-64.621S136.62,66.5,136.62,85.241A34.186,34.186,0,0,1,102.474,119.389Zm0-95.5c-15.948,0-30.877,42.184-30.877,61.35a30.876,30.876,0,1,0,61.752,0C133.349,66.075,118.422,23.891,102.474,23.891Z" transform="translate(-28.423 -20.619)" fill="#fff"/>
    <path id="Path_333" data-name="Path 333" d="M125.745,177.706a1.635,1.635,0,0,1-1.636-1.636V103.887a1.636,1.636,0,1,1,3.271,0V176.07A1.635,1.635,0,0,1,125.745,177.706Z" transform="translate(-51.629 -54.578)" fill="#fff"/>
    <path id="Path_334" data-name="Path 334" d="M125.747,123.7a1.636,1.636,0,0,1-1.111-2.836l9.783-9.049a1.635,1.635,0,1,1,2.22,2.4l-9.781,9.05A1.641,1.641,0,0,1,125.747,123.7Z" transform="translate(-51.63 -58.377)" fill="#fff"/>
    <path id="Path_335" data-name="Path 335" d="M116.012,144.958a1.629,1.629,0,0,1-1.111-.435l-13.665-12.637a1.637,1.637,0,0,1,2.223-2.4l13.665,12.637a1.637,1.637,0,0,1-1.112,2.838Z" transform="translate(-41.895 -65.725)" fill="#fff"/>
    <path id="Path_336" data-name="Path 336" d="M189.259,162.155a26.5,26.5,0,0,1-24.689-17.09,1.635,1.635,0,1,1,3.06-1.15,23.1,23.1,0,1,0,21.629-31.227,22.911,22.911,0,0,0-13.751,4.537,1.636,1.636,0,0,1-1.948-2.629,26.37,26.37,0,1,1,15.7,47.558Z" transform="translate(-68.416 -57.558)" fill="#fff"/>
    <path id="Path_337" data-name="Path 337" d="M205.839,194.411a1.634,1.634,0,0,1-1.636-1.636v-48.73a1.636,1.636,0,1,1,3.271,0v48.73A1.635,1.635,0,0,1,205.839,194.411Z" transform="translate(-84.947 -71.283)" fill="#fff"/>
    <path id="Path_338" data-name="Path 338" d="M205.84,159.51a1.635,1.635,0,0,1-1.109-2.836l7.444-6.883a1.636,1.636,0,0,1,2.22,2.4l-7.444,6.883A1.635,1.635,0,0,1,205.84,159.51Z" transform="translate(-84.948 -74.173)" fill="#fff"/>
    <path id="Path_339" data-name="Path 339" d="M198.436,175.68a1.632,1.632,0,0,1-1.111-.435l-10.393-9.613a1.636,1.636,0,1,1,2.22-2.4l10.393,9.613a1.636,1.636,0,0,1-1.109,2.838Z" transform="translate(-77.544 -79.763)" fill="#fff"/>
    <path id="Path_340" data-name="Path 340" d="M50.171,195.4a1.635,1.635,0,0,1-1.636-1.636V146.431a1.636,1.636,0,1,1,3.271,0v47.337A1.636,1.636,0,0,1,50.171,195.4Z" transform="translate(-20.19 -72.276)" fill="#fff"/>
    <path id="Path_341" data-name="Path 341" d="M50.171,161.94A1.636,1.636,0,0,1,49.06,159.1l7.467-6.908a1.636,1.636,0,0,1,2.221,2.4l-7.467,6.908A1.635,1.635,0,0,1,50.171,161.94Z" transform="translate(-20.19 -75.173)" fill="#fff"/>
    <path id="Path_342" data-name="Path 342" d="M42.743,178.162a1.629,1.629,0,0,1-1.111-.435l-10.428-9.644a1.636,1.636,0,0,1,2.221-2.4l10.428,9.644a1.637,1.637,0,0,1-1.111,2.838Z" transform="translate(-12.763 -80.783)" fill="#fff"/>
    <path id="Path_343" data-name="Path 343" d="M49.093,165.263H10.768a10.763,10.763,0,0,1-5.659-19.921,17.428,17.428,0,0,1,7.382-18.231c-.021-.339-.031-.662-.031-.981a17.471,17.471,0,0,1,30.28-11.883,1.635,1.635,0,0,1-2.4,2.225,14.2,14.2,0,0,0-24.611,9.659,14.41,14.41,0,0,0,.1,1.647,1.636,1.636,0,0,1-.8,1.6,14.163,14.163,0,0,0-6.456,16.331,1.635,1.635,0,0,1-.893,1.96,7.494,7.494,0,0,0,3.082,14.325H49.1a7.493,7.493,0,0,0,6.266-11.607,1.636,1.636,0,1,1,2.73-1.8,10.765,10.765,0,0,1-9,16.681Z" transform="translate(0 -57.243)" fill="#fff"/>
    <path id="Path_344" data-name="Path 344" d="M145.576,229.122H1.636a1.636,1.636,0,1,1,0-3.271h143.94a1.636,1.636,0,1,1,0,3.271Z" transform="translate(0 -105.994)" fill="#fff"/>
  </g>
</svg>
