<svg xmlns="http://www.w3.org/2000/svg" width="16" height="12" viewBox="0 0 16 12">
  <path id="Icon" d="M13,12H3A3,3,0,0,1,0,9V3A3,3,0,0,1,3,0H13a3,3,0,0,1,3,3V9A3,3,0,0,1,13,12ZM2,3.3V9a1,1,0,0,0,1,1H13a1,1,0,0,0,1-1V3.3L8.659,7.753a1,1,0,0,1-1.22.076l-.1-.076ZM3.567,2,8,5.671,12.432,2Z" fill="#00923f"/>
</svg>
