<svg id="Group_2635" data-name="Group 2635" xmlns="http://www.w3.org/2000/svg" width="147.212" height="123.128" viewBox="0 0 147.212 123.128">
  <path id="Path_344" data-name="Path 344" d="M145.576,229.122H1.636a1.636,1.636,0,1,1,0-3.271h143.94a1.636,1.636,0,1,1,0,3.271Z" transform="translate(0 -105.994)" fill="#fff"/>
  <g id="pine-tree-5083" transform="translate(31.782 0)">
    <g id="Group_2565" data-name="Group 2565">
      <path id="Path_345" data-name="Path 345" d="M102.844,107.831h-.071c-7.787-.239-14.741-3.634-20.536-6.964-5.8,3.333-12.749,6.724-20.535,6.965a2.321,2.321,0,0,1-2.164-1.383,2.294,2.294,0,0,1,.5-2.55,16.3,16.3,0,0,0,3.249-4.27,62.314,62.314,0,0,1-21.308-2.765,2.241,2.241,0,0,1-1.566-2.034A2.3,2.3,0,0,1,41.8,92.594,64.481,64.481,0,0,0,57.281,82.8a26.72,26.72,0,0,1-9.332-.387,2.293,2.293,0,0,1-.659-4.2c6.838-4.074,11.558-8.039,14.388-12.09a14.285,14.285,0,0,1-6.683-.245A2.226,2.226,0,0,1,53.4,64.077a2.316,2.316,0,0,1,.986-2.275,58.088,58.088,0,0,0,16.3-16.048,20.269,20.269,0,0,1-7.773-.238,2.289,2.289,0,0,1-.792-4.119A37.281,37.281,0,0,0,73.74,28.14,23.468,23.468,0,0,1,67.632,28a2.293,2.293,0,0,1-1.311-3.868c4.786-4.965,9.178-12.2,13.823-22.762a2.282,2.282,0,0,1,4.182,0c4.645,10.562,9.036,17.795,13.825,22.764A2.293,2.293,0,0,1,96.839,28a23.591,23.591,0,0,1-6.109.142A37.291,37.291,0,0,0,102.348,41.4a2.288,2.288,0,0,1-.792,4.119,20.266,20.266,0,0,1-7.773.237,58.075,58.075,0,0,0,16.3,16.048,2.32,2.32,0,0,1,.986,2.274,2.224,2.224,0,0,1-1.594,1.809,14.271,14.271,0,0,1-6.684.245c2.829,4.051,7.552,8.016,14.39,12.09a2.293,2.293,0,0,1-.658,4.2,26.717,26.717,0,0,1-9.332.387,64.508,64.508,0,0,0,15.484,9.79,2.3,2.3,0,0,1,1.382,2.237,2.238,2.238,0,0,1-1.565,2.034,62.464,62.464,0,0,1-21.311,2.765,16.337,16.337,0,0,0,3.251,4.271,2.291,2.291,0,0,1,.5,2.549A2.261,2.261,0,0,1,102.844,107.831ZM63.991,96.863a2.291,2.291,0,0,1,2.121,3.167,16.951,16.951,0,0,1-3.361,5.007c6.84-.509,13.09-3.636,18.347-6.672a2.278,2.278,0,0,1,2.276,0h0c5.258,3.036,11.507,6.163,18.347,6.672a16.924,16.924,0,0,1-3.361-5.007,2.271,2.271,0,0,1,.237-2.188,2.338,2.338,0,0,1,1.989-.977A60.7,60.7,0,0,0,120.5,94.614,68.656,68.656,0,0,1,104.22,83.856a2.289,2.289,0,0,1,1.888-3.981,25.373,25.373,0,0,0,8.69.1c-7.2-4.408-12.087-8.769-14.933-13.314a2.25,2.25,0,0,1,.083-2.519,2.316,2.316,0,0,1,2.432-.9,12.613,12.613,0,0,0,5.333.249A59.657,59.657,0,0,1,90.886,46.3a2.247,2.247,0,0,1,.073-2.493,2.313,2.313,0,0,1,2.386-.923,17.382,17.382,0,0,0,6.59.163A40.989,40.989,0,0,1,87.886,28.625a2.28,2.28,0,0,1,2.365-3.307,20.3,20.3,0,0,0,5.337.086c-4.642-5.022-8.913-12.058-13.353-22-4.442,9.945-8.712,16.982-13.354,22a20.142,20.142,0,0,0,5.338-.086,2.281,2.281,0,0,1,2.365,3.308,40.952,40.952,0,0,1-12.047,14.42,17.383,17.383,0,0,0,6.59-.163,2.315,2.315,0,0,1,2.387.925,2.249,2.249,0,0,1,.07,2.493A59.63,59.63,0,0,1,56.759,63.49a12.591,12.591,0,0,0,5.333-.249,2.313,2.313,0,0,1,2.432.9,2.251,2.251,0,0,1,.082,2.521c-2.846,4.543-7.735,8.906-14.931,13.313a25.477,25.477,0,0,0,8.69-.1,2.288,2.288,0,0,1,1.887,3.981A68.711,68.711,0,0,1,43.971,94.613a60.615,60.615,0,0,0,19.913,2.252ZM82,100.734Z" transform="translate(-40.412)" fill="#fff"/>
      <path id="Path_346" data-name="Path 346" d="M124.366,228.537H114.327a1.368,1.368,0,0,1-1.368-1.368V207.431a1.368,1.368,0,1,1,2.736,0V225.8H123V207.431a1.368,1.368,0,1,1,2.736,0v19.737A1.367,1.367,0,0,1,124.366,228.537Z" transform="translate(-77.522 -105.409)" fill="#fff"/>
    </g>
  </g>
</svg>
